<?xml version="1.0" encoding="utf-8"?>
<!-- Generator: Adobe Illustrator 16.0.0, SVG Export Plug-In . SVG Version: 6.00 Build 0)  -->
<!DOCTYPE svg PUBLIC "-//W3C//DTD SVG 1.1//EN" "http://www.w3.org/Graphics/SVG/1.1/DTD/svg11.dtd">
<svg version="1.1" id="Layer_1" xmlns="http://www.w3.org/2000/svg" xmlns:xlink="http://www.w3.org/1999/xlink" x="0px" y="0px"
	 width="334.334px" height="355.999px" viewBox="0 0 334.334 355.999" enable-background="new 0 0 334.334 355.999"
	 xml:space="preserve">
<g>
	<polygon fill="#FFFFFF" points="166.334,82.665 203.334,171.999 267.001,171.999 203.334,0 130.667,0 67.334,171.999 
		132.334,171.999 	"/>
	<polygon fill="#FFFFFF" points="270.668,184 198,184 167.082,267.968 136,184 63.333,184 0,355.999 65,355.999 99,266.665 
		135.294,354.295 134.667,355.999 136,355.999 199.668,355.999 233.668,266.665 270.668,355.999 334.334,355.999 	"/>
</g>
</svg>
